<svg xmlns="http://www.w3.org/2000/svg" width="20" height="18" viewBox="0 0 20 18">
  <text fill="#FFF" fill-rule="evenodd" font-family="MaterialIcons-Regular, Material Icons" font-size="24" transform="translate(-876 -139)">
    <tspan x="874" y="160">email</tspan>
  </text>
</svg>
